certifi==2018.4.16
chardet==3.0.4
defusedxml==0.5.0
Django==2.0.7
django-appconf==1.0.2
django-compressor==2.2
django-libsass==0.7
django-widget-tweaks==1.4.2
idna==2.7
libsass==0.14.5
oauthlib==2.1.0
psycopg2-binary==2.8.2
PyJWT==1.6.4
python-memcached==1.59
python3-openid==3.1.0
pytz==2018.5
rcssmin==1.0.6
requests==2.19.1
requests-oauthlib==1.0.0
rjsmin==1.0.12
six==1.12.0
social-auth-app-django==2.1.0
social-auth-core==1.7.0
urllib3==1.23
whitenoise==4.1.2
